"0","knitr::opts_chunk$set(echo=FALSE,warning=FALSE,message=FALSE,echo=FALSE)"
"0","library(dplyr)"
"0","library(xviz)"
"0","library(VennDiagram)"
"0","library(ggplot2)"
"0","library(metamicrobiomeR)"
"0","library(readxl)"
"0","library(stringi)"
"0","library(gridExtra)"
"0","library(png)"
"0","library(curatedMetagenomicData)"
"0","library(ComplexHeatmap)"
"0","library(magrittr)"
"0","library(tidyverse)"
"0","library(corrr)"
"0","library(xlsx)"
"0","library(reticulate)"
"0","library(""ggpubr"")"
