"0","###"
"0","Heatmap(otu_mgs %>% select(c('Dorea_longicatena','Collinsella_aerofaciens','Eubacterium_ramulus','Dorea_formicigenerans','Eubacterium_hallii','Streptococcus_australis','Ruminococcus_sp_5_1_39BFAA','Coprococcus_catus','Ruminococcus_obeum')) %>% t() %>% as.matrix(),"
"0","                    #top_annotation = anno,"
"0","                    column_names_rot = 90,"
"0","                    name = ""Relative_Species_abundance"","
"0","                    col = colorRamp2(c(0,0.00210084,0.1), c(""white"",""orange"",""red"")),"
"0","                    row_names_gp = gpar(fontsize = 10),"
"0","                    cluster_rows = FALSE,"
"0","                    cluster_columns = FALSE,"
"0","                    column_title_side =  'top',"
"0","                    show_heatmap_legend = TRUE,"
"0","        column_order =c(""PZQ-6-1_诺禾"",""PZQ-6-1_美格"",""PZQ-6-2_美格"", ""LYb-17-1_诺禾"", ""LYb-17-1_美格"", ""LYb-17-2_美格"", ""Reference-040601_诺禾"", ""Reference-040601_美格"", ""Reference-040602_美格"" )"
"0","        )"
