Cloacibacillus	1.15485911695			-
Methanosphaera	1.51037190699			-
Holdemania	2.42647014588			-
Pseudocitrobacter	1.41190549405			-
Adlercreutzia	2.75822548425			-
Aggregatibacter	1.6306683514			-
Holdemanella	4.30075218347			-
Raoultibacter	0.539857173205			-
Paenibacillus	0.411905494051			-
Ruminococcaceae_UCG_014	3.50785159656			-
Lachnospiraceae_UCG_001	3.8946098349			-
Haemophilus	3.45332404582			-
Ruminococcaceae_UCG_010	2.01542472815			-
Methanobrevibacter	2.80780080099			-
Lachnospiraceae_UCG_006	1.75533101292			-
Ruminococcaceae_UCG_013	2.95150698907			-
Angelakisella	1.91202719307			-
Neisseria	1.15924717076			-
Christensenella	0.0			-
Flavonifractor	2.31956218425			-
Intestinimonas	2.81348725091			-
Oscillibacter	2.75615251329			-
Negativibacillus	2.08075325892			-
Prevotella	0.907833988331			-
Eggerthella	2.26258788312			-
Papillibacter	0.587996659651			-
Paraprevotella	4.06783873395			-
Gordonibacter	1.7327811688			-
Megamonas	4.90681523453			-
Alistipes	4.14669468451			-
Veillonella	2.51747396608			-
Succinispira	0.712935349531			-
Lactobacillus	2.30714027137			-
Victivallis	2.16741929408			-
Actinobacillus	1.82616392645			-
Akkermansia	1.69581792194			-
Mogibacterium	2.13740533614			-
Candidatus_Soleaferrea	1.66939709917			-
Paraherbaspirillum	0.712935349531			-
Klebsiella	2.74431566258			-
Intestinibacter	2.02109540127			-
Pseudoduganella	0.411905494051			-
Herbaspirillum	1.06273593937			-
Sanguibacteroides	0.0			-
Comamonas	1.0496568146			-
Barnesiella	2.88217436229	美格	4.14488616536	0.0455002638964
Phocea	1.52654790871			-
Cricetibacter	0.539857173205			-
Erysipelotrichaceae_UCG_003	3.69066520632			-
Oscillospira	1.19156995988			-
Fusobacterium	1.01660920985			-
Bifidobacterium	4.84810374313			-
Family_XIII_UCG_001	2.41310837092			-
Porphyromonas	1.07304292975			-
Turicibacter	2.18939429346			-
Corynebacterium	0.712935349531			-
Pseudomonas	3.04802187392			-
Ruminococcaceae_NK4A214_group	3.12713230411			-
Prevotella_9	5.28170649638			-
Lachnospiraceae_ND3007_group	3.82199530111			-
Howardella	1.68005934553			-
Clostridium_sensu_stricto_1	2.99113234042			-
Prevotella_2	5.16529308383			-
Lactonifactor	0.587996659651			-
Butyricicoccus	3.35562461207			-
Romboutsia	3.3087007101			-
Lachnospiraceae_FCS020_group	3.04003279839			-
Lachnoclostridium	4.44220130912			-
Lachnospiraceae_AC2044_group	2.27633739669			-
Lachnospira	4.88737020078			-
Oxalobacter	2.63549244319			-
Parabacteroides	4.04078145377	美格	3.67488769517	0.0455002638964
Halopiger	0.587996659651			-
UBA1819	2.43061667227			-
Acetanaerobacterium	0.809845446649			-
Megasphaera	3.61784908407			-
Olsenella	3.12888405			-
Blautia	4.51160428981			-
Shuttleworthia	1.93748705143			-
Lachnospiraceae_UCG_004	3.7881072558			-
Ruminiclostridium_5	2.61009084436			-
Bilophila	3.76916631808	美格	3.50352343743	0.0455002638964
Ruminiclostridium_6	1.06655922716			-
Listeria	0.664795962018			-
Ruminiclostridium_9	2.81783837662			-
Komagataeibacter	2.24243234476			-
Bacillus	1.93875363003			-
Anaerostipes	3.7358836984			-
Lachnospiraceae_NK4A136_group	3.77298881256			-
Bacteroides	4.9678438876			-
Cuneatibacter	0.978657553388			-
Butyricimonas	3.59280667597			-
Sutterella	4.26825270363			-
Fournierella	2.82887804584			-
Anaeroglobus	0.90251887767			-
Anaerofilum	1.94224424522			-
Agathobacter	4.7223765621			-
Streptococcus	2.81312245973			-
F0332	0.712935349531			-
Ruminococcus_2	3.81392644805			-
Ruminococcus_1	4.28821674424			-
Roseburia	4.16899219241			-
Coprococcus_3	3.41704494757			-
Coprococcus_2	3.10982621095			-
Coprococcus_1	3.07894110778			-
Marvinbryantia	2.7894869366			-
Halomonas	0.955973418244			-
Prevotella_6	0.712935349531			-
GCA_900066225	1.79341399695			-
Family_XIII_AD3011_group	2.42308799286			-
Collinsella	4.08456212114			-
Ruminococcaceae_UCG_004	1.91061871632			-
Ruminococcaceae_UCG_003	3.81765820172			-
Christensenellaceae_R_7_group	3.85131161611			-
Pseudoflavonifractor	0.712935349531			-
Parasutterella	4.01672036131			-
Allisonella	2.55388087652			-
Granulicatella	1.86566548804			-
Tyzzerella	3.22551093702			-
CAG_56	3.63330516703	美吉	3.7092794797	0.0455002638964
Caproiciproducens	0.587996659651			-
Slackia	1.77844164805			-
Odoribacter	2.87786193561			-
Subdoligranulum	4.36720416413			-
Rikenella	1.06511791437			-
Escherichia_Shigella	2.81822458517			-
Anaerotruncus	0.812436375316			-
Eisenbergiella	0.0			-
Tyzzerella_3	3.32644688131			-
GCA_900066575	2.55272369149			-
Terrisporobacter	2.20673213112			-
Chryseolinea	0.587996659651			-
Faecalibacterium	4.9366268185			-
Dialister	4.86915222893			-
Phascolarctobacterium	4.51890242191	美格	4.25070512833	0.0455002638964
Ruminococcaceae_UCG_008	2.3902229415			-
Ruminococcaceae_UCG_007	1.15485911695			-
Ruminococcaceae_UCG_005	3.27807705285	美格	3.31472536407	0.0442186593906
Lachnospiraceae_UCG_010	3.57250317729			-
Desulfovibrio	2.5902613483			-
Ruminococcaceae_UCG_002	4.14131734319			-
Actinomyces	2.24767046383			-
Dorea	3.52603587852			-
Fusicatenibacter	4.15538728682			-
Coprobacter	2.03407265392			-
Defluviitaleaceae_UCG_011	1.01655639978			-
