class	美吉	美吉	美格	美格	美格	美格	美格	美格
subclass	美吉_subcl	美吉_subcl	美格_subcl	美格_subcl	美格_subcl	美格_subcl	美格_subcl	美格_subcl
subject	LYb-17-1_美格	PZQ-6-1_美吉	LYb-17-1_美吉	LYb-17-2_美格	PZQ-6-1_美格	PZQ-6-2_美格	Reference-040601_美格	Reference-040602_美格
Cloacibacillus	0.0	0.0	0.0	0.0	85.7058304388	0.0	0.0	0.0
Methanosphaera	0.0	0.0	0.0	77.4509299396	116.871600598	0.0	0.0	0.0
Holdemania	0.0	60.784730096	199.003299618	704.80349945	545.400702792	0.0	55.5864397493	97.0544011831
Pseudocitrobacter	0.0	0.0	0.0	154.901899879	0.0	0.0	0.0	0.0
Adlercreutzia	0.0	0.0	571.052798904	1246.96009903	802.518204109	0.0	0.0	818.029909972
Aggregatibacter	0.0	0.0	103.827799801	0.0	0.0	0.0	0.0	152.514101859
Holdemanella	0.0	13524.6000214	21596.1799585	37013.7999711	40180.4502057	71.9053702251	55.5864397493	21005.3402561
Raoultibacter	0.0	0.0	0.0	0.0	0.0	0.0	0.0	20.7973702535
Paenibacillus	0.0	0.0	0.0	15.4901899879	0.0	0.0	0.0	0.0
Ruminococcaceae_UCG_014	559.87910346	45.588550072	337.440299352	6079.89799526	4947.56402533	4026.7010126	3768.759983	159.446501944
Lachnospiraceae_UCG_001	15690.610097	0.0	51.9138899003	302.058599764	194.786000997	3367.56801054	3424.12498456	0.0
Haemophilus	209.954601298	1869.13000295	5485.56798947	0.0	85.7058304388	3511.37901099	3257.36498531	4700.2060573
Lachnospiraceae_UCG_004	4437.04202742	7841.23001239	138.436999734	1332.15599896	1534.91300786	12020.1810376	12184.546945	0.0
Methanobrevibacter	0.0	0.0	0.0	1703.92099867	2150.43701101	0.0	0.0	0.0
Lachnospiraceae_UCG_006	0.0	0.0	0.0	209.117499837	132.454500678	0.0	0.0	0.0
Romboutsia	1035.7763064	182.354200288	726.794498605	4925.87949616	4300.87422202	922.785602888	1011.67319544	325.825503972
Komagataeibacter	0.0	349.512200552	0.0	0.0	0.0	0.0	0.0	0.0
Neisseria	0.0	0.0	51.9138899003	0.0	0.0	0.0	0.0	34.6622904225
Christensenella	0.0	0.0	0.0	0.0	0.0	0.0	0.0	0.0
Flavonifractor	0.0	106.373300168	138.436999734	240.097899813	529.817802713	71.9053702251	133.407399398	138.64910169
Intestinimonas	1301.71900804	0.0	69.2185198671	975.881799239	1153.1330059	263.653000825	244.580298897	0.0
Oscillibacter	0.0	0.0	0.0	1154.0188991	2056.93981053	0.0	211.228499047	0.0
Negativibacillus	0.0	0.0	0.0	333.03899974	389.571901995	0.0	0.0	0.0
Prevotella	0.0	0.0	0.0	0.0	0.0	0.0	0.0	48.5272005915
Eggerthella	153.966700952	0.0	0.0	0.0	194.786000997	503.337601575	400.222298195	0.0
Papillibacter	0.0	0.0	0.0	23.2352799819	0.0	0.0	0.0	0.0
Paraprevotella	4311.06902664	0.0	155.741699701	6250.28999512	6988.92103578	27983.1700876	28682.5998706	83.1894810141
Gordonibacter	0.0	0.0	0.0	77.4509299396	93.4972704787	83.8896002626	55.5864397493	13.864910169
Megamonas	63700.2410937	15226.5751241	218263.306881	317.548799752	553.192202832	13781.8631431	11862.1455465	239356.948218
Alistipes	321.93050199	7674.07231213	10676.9571795	28168.904978	30409.9856557	2672.48300836	2267.92658977	9913.41372084
Veillonella	0.0	227.94270036	951.754698173	0.0	0.0	0.0	122.290199448	901.219410986
Succinispira	0.0	0.0	0.0	30.9803699758	0.0	0.0	0.0	0.0
Lactobacillus	0.0	0.0	0.0	518.921299595	506.443502593	59.9211401876	0.0	131.716701606
Victivallis	0.0	0.0	0.0	503.431099607	342.823301755	35.9526901125	0.0	0.0
Actinobacillus	0.0	0.0	0.0	0.0	0.0	0.0	0.0	402.082504901
Akkermansia	0.0	0.0	173.046299668	0.0	0.0	0.0	0.0	124.784201521
Mogibacterium	0.0	0.0	0.0	433.725199662	389.571901995	0.0	0.0	0.0
Candidatus_Soleaferrea	0.0	0.0	0.0	139.411699891	116.871600598	23.968460075	0.0	0.0
Paraherbaspirillum	0.0	0.0	0.0	30.9803699758	0.0	0.0	0.0	0.0
Klebsiella	349.924402163	91.1771001441	216.307899585	0.0	0.0	1653.82360518	1245.13619438	214.90620262
Intestinibacter	209.954601298	0.0	0.0	0.0	0.0	215.716100675	0.0	0.0
Pseudoduganella	0.0	0.0	0.0	15.4901899879	0.0	0.0	0.0	0.0
Herbaspirillum	0.0	0.0	0.0	0.0	0.0	0.0	0.0	69.3245708451
Sanguibacteroides	0.0	0.0	0.0	0.0	0.0	0.0	0.0	0.0
Comamonas	0.0	0.0	0.0	46.4705599638	0.0	0.0	0.0	20.7973702535
Barnesiella	181.960701125	136.765600216	242.264799535	890.685799305	981.721305026	1042.62790326	1222.90159448	194.108802366
Phocea	0.0	0.0	0.0	147.156799885	54.5400702792	0.0	0.0	0.0
Cricetibacter	0.0	0.0	0.0	0.0	0.0	0.0	0.0	20.7973702535
Erysipelotrichaceae_UCG_003	3919.15352422	455.88550072	2569.73769507	2826.95909779	2368.59741213	10066.7522315	8660.36686094	2939.36183583
Oscillospira	0.0	0.0	0.0	38.7254699698	54.5400702792	0.0	0.0	0.0
Fusobacterium	0.0	0.0	34.6092599336	0.0	0.0	0.0	0.0	27.729830338
Bifidobacterium	139087.95786	1884.32700298	14847.3729715	3012.84099765	3358.11001719	30787.4840964	29238.4658681	19688.17824
Family_XIII_UCG_001	0.0	91.1771001441	164.393999684	549.901599571	693.43810355	0.0	0.0	145.581601775
Porphyromonas	0.0	0.0	34.6092599336	0.0	15.5828800798	0.0	0.0	20.7973702535
Turicibacter	0.0	91.1771001441	622.966698804	0.0	0.0	0.0	0.0	305.028103718
Corynebacterium	0.0	0.0	0.0	30.9803699758	0.0	0.0	0.0	0.0
Pseudomonas	0.0	2233.83900353	0.0	85.1960299335	132.454500678	35.9526901125	44.4691497994	34.6622904225
Ruminococcaceae_NK4A214_group	0.0	349.512200552	899.840798272	2679.80229791	3739.89061915	0.0	0.0	720.975508789
Prevotella_9	0.0	379555.0564	203614.937009	396486.825291	352617.146105	743.022202326	733.740996691	193581.93356
Lachnospiraceae_ND3007_group	12849.2246794	425.493100672	1297.84729751	1866.56749854	1784.23950914	3115.89950975	2779.32178747	1220.11241487
Howardella	0.0	0.0	0.0	178.137199861	109.080100558	0.0	0.0	0.0
Clostridium_sensu_stricto_1	1959.57701211	0.0	77.8708398505	0.0	0.0	2636.53000825	2479.15498882	62.3921107606
Prevotella_2	210752.478802	0.0	441.268099153	28850.4731775	35279.6348806	399050.850349	413818.786334	457.542205577
Lactonifactor	0.0	0.0	0.0	23.2352799819	0.0	0.0	0.0	0.0
Butyricicoccus	4171.09902578	364.708400576	2197.68809578	2323.52799819	4059.33962078	1102.54900345	722.623696741	2925.49693566
Lachnospiraceae_FCS020_group	2071.5525128	121.569500192	536.44359897	968.136699245	1129.75860578	527.30610165	655.919997042	415.94740507
Lachnoclostridium	11295.5600698	44068.9300696	22591.1949566	6041.17299529	8274.50804237	19462.3870609	18032.2399187	20936.0202552
Lachnospiraceae_AC2044_group	0.0	197.550400312	0.0	441.470299656	592.149303032	0.0	100.055599549	0.0
Lachnospira	26664.2411648	127647.935202	45069.9109135	5979.21199534	4986.52102553	48643.9851523	51328.5157685	42946.5725235
Parabacteroides	1945.58001202	5576.99900881	8427.35498382	13553.9139894	12824.7080657	11564.7810362	11272.9289492	8263.48910073
Halopiger	0.0	0.0	0.0	23.2352799819	0.0	0.0	0.0	0.0
UBA1819	0.0	0.0	0.0	805.489699372	638.898003271	83.8896002626	88.9382995989	0.0
Ruminococcaceae_UCG_013	1189.74300735	60.784730096	138.436999734	1587.74399876	1753.07400898	862.864502701	933.852095788	90.1219410986
Acetanaerobacterium	0.0	0.0	0.0	38.7254699698	0.0	0.0	0.0	0.0
Megasphaera	7992.27374939	303.92370048	2171.73119583	0.0	0.0	6663.23122086	6270.15007172	1684.58712054
Olsenella	0.0	440.689300696	4256.93899183	0.0	85.7058304388	83.8896002626	0.0	3646.47204445
Blautia	61432.7313797	3525.51400557	10694.2619795	23475.3779817	19766.8801012	16634.1100521	15097.2759319	12395.2331511
Shuttleworthia	0.0	0.0	242.264799535	0.0	0.0	0.0	0.0	277.29830338
Ruminococcaceae_UCG_010	0.0	0.0	0.0	271.078299789	350.614701795	0.0	0.0	0.0
Ruminiclostridium_5	83.981860519	136.765600216	354.744899319	619.607499517	592.149303032	131.826500413	233.462998947	513.001806253
Bilophila	461.900202855	683.82820108	1367.06579738	12678.7179901	16182.8183829	1617.87090506	1856.58699163	1559.80281901
Ruminiclostridium_6	0.0	0.0	0.0	30.9803699758	38.9571901995	0.0	0.0	0.0
Listeria	0.0	0.0	0.0	0.0	0.0	0.0	0.0	27.729830338
Ruminiclostridium_9	377.918402336	45.588550072	199.003299618	1339.90099895	1160.92400594	671.116802101	400.222298195	173.311402113
Angelakisella	0.0	0.0	0.0	147.156799885	342.823301755	0.0	0.0	0.0
Bacillus	0.0	0.0	190.350899635	154.901899879	85.7058304388	0.0	0.0	90.1219410986
Anaerostipes	7726.33114775	3160.80600499	3858.93269259	1053.33269918	989.512705066	1737.71320544	1623.12399268	5039.89636144
Lachnospiraceae_NK4A136_group	4381.05402707	7081.42101119	2439.95299532	10874.1109915	10526.2340539	4793.692015	4791.55097839	2149.0620262
Bacteroides	26426.2901633	115931.680183	105315.979798	74864.0699416	76589.8403921	98558.3003085	104713.729528	97137.5911841
Cuneatibacter	0.0	0.0	25.9569499502	0.0	31.1657601596	0.0	0.0	0.0
Butyricimonas	195.957701211	75.98091012	294.178699435	6188.32999517	8523.83404364	4554.00701425	3746.5259831	187.176302282
Oxalobacter	0.0	0.0	0.0	1719.41079866	872.641104468	0.0	0.0	0.0
Fournierella	0.0	0.0	0.0	1649.70499871	2368.59701213	0.0	0.0	27.729830338
Anaeroglobus	0.0	0.0	0.0	0.0	0.0	47.93692015	0.0	0.0
Anaerofilum	0.0	0.0	0.0	170.392099867	210.368801077	0.0	144.524699348	0.0
Agathobacter	89748.6105546	15788.8300249	11395.0999781	16435.0899872	19985.0401023	30775.5000963	33085.0498508	10114.4501233
Streptococcus	181.960701125	440.689300696	1133.45329782	449.21539965	584.357902992	143.81070045	322.401298546	1268.63961546
F0332	0.0	0.0	0.0	30.9803699758	0.0	0.0	0.0	0.0
Ruminococcus_2	12331.3364762	699.024401104	1912.16169633	619.607499517	599.940803072	4973.45491557	5247.35957633	1545.93791884
Ruminococcus_1	35524.3272195	3312.76800523	9880.94398103	2695.2929979	2820.50101444	17544.9110549	17065.035923	6752.21308231
Roseburia	6088.68503763	13722.1530217	12433.3769761	28625.8659777	25641.6251313	5033.37601575	4647.02597904	12159.5301482
Coprococcus_3	4996.92073088	227.94270036	389.354199252	1804.60679859	2041.35701045	3715.11091163	3190.66148561	644.718507859
Coprococcus_2	0.0	1686.77600267	2266.90699565	1463.82299886	1480.37300758	95.8738303001	0.0	2419.42802949
Coprococcus_1	2155.53441332	243.138900384	761.403798538	952.646499257	973.929804987	850.880202663	1000.55589549	776.435209465
Marvinbryantia	1231.73400761	0.0	0.0	666.07799948	436.320602234	371.511101163	466.926097894	62.3921107606
Halomonas	0.0	0.0	0.0	54.2156499577	0.0	0.0	0.0	0.0
Prevotella_6	0.0	0.0	0.0	30.9803699758	0.0	0.0	0.0	0.0
GCA_900066225	0.0	0.0	0.0	185.882199855	186.994500957	0.0	0.0	0.0
Family_XIII_AD3011_group	0.0	0.0	77.8708398505	480.195799625	864.849704428	0.0	55.5864397493	110.919301352
Collinsella	7362.4097455	182.354200288	10235.6890803	16551.2647871	17226.8711882	9239.84042892	7359.64416681	12284.3140497
Sutterella	7138.45814412	12126.5538192	588.35739887	8178.81869362	9108.19194663	46175.2335445	46525.8474902	700.178208535
Ruminococcaceae_UCG_004	0.0	0.0	224.960199568	0.0	0.0	0.0	0.0	263.433403211
Ruminococcaceae_UCG_003	1189.74300735	3647.08400576	2413.99599537	13042.7369898	14281.7070731	3966.78001242	3546.41498401	2176.79202654
Christensenellaceae_R_7_group	5920.72103659	45.588550072	744.099098571	7241.66199435	5937.0760304	15675.3700491	12306.8399445	700.178208535
Pseudoflavonifractor	0.0	0.0	0.0	30.9803699758	0.0	0.0	0.0	0.0
Parasutterella	2953.36201825	7932.40701253	11715.2349775	1990.48899845	1573.87100806	18048.2490565	16853.807924	12173.3951484
Allisonella	83.981860519	258.335100408	960.406998156	0.0	31.1657601596	215.716100675	289.049498696	651.651007944
Granulicatella	0.0	0.0	0.0	108.431299915	0.0	131.826500413	200.111199097	0.0
Tyzzerella	139.969800865	3221.59070509	2647.60849492	0.0	132.454500678	239.68460075	289.049498696	1774.70902163
CAG_56	3597.22302223	4999.5441079	1791.02929656	797.744599378	1106.38430566	2277.00350713	2423.56858907	1746.9792213
Caproiciproducens	0.0	0.0	0.0	23.2352799819	0.0	0.0	0.0	0.0
Slackia	0.0	0.0	0.0	0.0	0.0	215.716100675	144.524699348	0.0
Odoribacter	139.969800865	623.043500984	354.744899319	1471.56779885	1714.11650878	191.7477006	478.043397844	318.893003887
Subdoligranulum	40353.2842494	6230.43500984	6792.06798696	6784.70199471	7098.00103634	15028.223047	17487.4929211	8138.70509921
Rikenella	0.0	0.0	0.0	69.7058399456	0.0	0.0	0.0	0.0
Escherichia_Shigella	139.969800865	0.0	121.132399767	1579.99899877	997.304205106	623.179901951	466.926097894	159.446501944
Anaerotruncus	0.0	0.0	0.0	0.0	38.9571901995	0.0	0.0	0.0
Eisenbergiella	0.0	0.0	0.0	0.0	0.0	0.0	0.0	0.0
Tyzzerella_3	4241.08402621	0.0	0.0	0.0	0.0	1318.26500413	1345.19199393	0.0
GCA_900066575	363.921402249	0.0	0.0	85.1960299335	163.620200838	970.722503038	922.734895838	0.0
Terrisporobacter	321.93050199	0.0	0.0	0.0	0.0	0.0	0.0	0.0
Chryseolinea	0.0	0.0	0.0	23.2352799819	0.0	0.0	0.0	0.0
Faecalibacterium	107902.690667	39069.3900617	161685.81969	36045.6699719	55295.8402831	52323.1401638	47581.9897854	165602.532019
Dialister	13745.0311849	134227.882212	51775.4550006	108.431299915	179.203100918	19486.356061	14030.0166367	46080.0426617
Phascolarctobacterium	321.93050199	0.0	1367.06579738	103211.115719	91494.8658685	575.243001801	433.574198045	1095.32821335
Ruminococcaceae_UCG_008	0.0	106.373300168	432.615799169	309.803699758	218.160301117	0.0	0.0	513.001806253
Ruminococcaceae_UCG_007	0.0	0.0	0.0	0.0	85.7058304388	0.0	0.0	0.0
Ruminococcaceae_UCG_005	0.0	0.0	95.1754698173	4600.58599641	5695.54202916	371.511101163	466.926097894	152.514101859
Lachnospiraceae_UCG_010	671.854904152	4118.16550651	2604.346895	8465.3871934	7316.16103746	874.848702738	789.32739644	2370.9003289
Desulfovibrio	0.0	0.0	0.0	1595.48929876	740.18670379	0.0	0.0	0.0
Ruminococcaceae_UCG_002	923.800505709	2704.92050427	2959.09189432	29539.786477	44683.9015288	1821.6028057	1623.12399268	2447.15732983
Actinomyces	0.0	0.0	0.0	302.058599764	225.951701157	0.0	366.870498345	166.379002028
Dorea	5514.80903408	1200.4980019	1903.50899635	3570.48799722	3716.51601903	2876.215009	2623.67998817	2675.92803262
Fusicatenibacter	27266.1111685	1337.26400211	3210.00899384	2083.42999837	2243.93401149	7178.55302247	5969.98297308	3313.71404039
Coprobacter	0.0	0.0	0.0	0.0	46.7486302394	179.763400563	422.456898095	0.0
Defluviitaleaceae_UCG_011	0.0	0.0	0.0	0.0	62.3315103191	0.0	0.0	0.0
