Coprococcus_sp_ART55_1	3.78708979971			-
Gordonibacter_pamelaeae	2.16169291185			-
Lachnospiraceae_bacterium_2_1_58FAA	2.36932380162			-
Megamonas_rupellensis	3.22046631512			-
Dorea_longicatena	3.27686134974			-
Listeria_monocytogenes	0.0			-
Alistipes_sp_AP11	2.99466675298			-
Bacteroides_sp_3_1_19	3.66359725576			-
Bacteroides_ovatus	3.5216872122			-
Enterococcus_faecalis	0.0			-
Bacteroides_sp_4_3_47FAA	3.19828250898			-
Adlercreutzia_equolifaciens	3.21902311253			-
Ruminococcus_torques	3.43722454671	美格	3.54707724168	0.0284597369163
Bifidobacterium_longum	2.68879335221			-
Paraprevotella_xylaniphila	2.58607990241			-
Alistipes_putredinis	4.40947720361			-
Collinsella_aerofaciens	3.52264144927			-
Bacteroides_salyersiae	2.71188305083			-
Porcine_circovirus_1	1.23350672215			-
Bifidobacterium_adolescentis	4.19585245547			-
Megasphaera_unclassified	2.80709417525			-
Bacteroides_stercoris	4.43754609967			-
Barnesiella_intestinihominis	3.10281015057			-
Alistipes_shahii	3.70027814176			-
Veillonella_unclassified	2.53751175011			-
Megamonas_hypermegale	4.33995239945			-
Bacteroides_uniformis	4.43017345305			-
Subdoligranulum_unclassified	4.24043487419			-
Subdoligranulum_sp_4_3_54A2FAA	2.90095780711			-
Eubacterium_ventriosum	3.47896259388			-
Oxalobacter_formigenes	2.85197402123			-
Lachnospiraceae_bacterium_1_1_57FAA	4.32737615077			-
Olsenella_unclassified	1.47205252781			-
Staphylococcus_phage_phiETA2	1.7765457411			-
Ruminococcus_callidus	3.26234005198			-
Alistipes_indistinctus	2.515939294			-
Bacteroides_coprocola	3.39224815835			-
Bacteroides_caccae	4.42033981888			-
Escherichia_unclassified	2.41892673042			-
Haemophilus_parainfluenzae	3.06359237103			-
Lactobacillus_fermentum	2.37376570709	美格	3.88664330322	0.0128206320138
Pseudomonas_aeruginosa	0.0			-
Paraprevotella_unclassified	4.11116808926			-
Lachnospiraceae_bacterium_8_1_57FAA	2.0162996776			-
Odoribacter_splanchnicus	3.52536103354			-
Eubacterium_rectale	5.00922967633			-
Actinomyces_odontolyticus	0.0			-
Bacillus_subtilis	0.0			-
Peptostreptococcaceae_noname_unclassified	2.26350797292			-
Porcine_stool_associated_circular_virus_3	2.89254279208			-
Bacteroides_plebeius	3.31671975097			-
Alistipes_finegoldii	2.97471362844			-
Parasutterella_excrementihominis	3.21894370681			-
Porcine_associated_stool_circular_virus	3.11150094295			-
Burkholderiales_bacterium_1_1_47	2.75254816435			-
Chicken_anemia_virus	2.12392725897			-
Roseburia_inulinivorans	4.30106482902			-
Megamonas_unclassified	4.82930488597			-
Bacteroides_coprophilus	3.2920699392			-
Eubacterium_ramulus	2.87744740025			-
Holdemania_unclassified	2.10228148433			-
Saccharomyces_cerevisiae	0.0			-
Salmonella_unclassified	0.0			-
Bacteroides_intestinalis	2.39715653284			-
Porcine_bocavirus_3	2.23190290682			-
Prevotella_copri	5.24745108043			-
Bifidobacterium_bifidum	2.58564334193			-
Clostridium_asparagiforme	1.2997745214			-
Phascolarctobacterium_succinatutens	4.42075150363			-
Methanobrevibacter_smithii	2.6208735235			-
Escherichia_coli	2.81614811688			-
Bilophila_wadsworthia	1.99220273171			-
Dorea_formicigenerans	3.16638811558			-
Holdemania_filiformis	2.30843805667			-
Bacteroides_nordii	1.55990224103			-
Megamonas_funiformis	4.03438071865			-
Roseburia_hominis	3.77991907099			-
Parabacteroides_merdae	4.09581576754	美格	3.60215762363	0.0105871373341
Parabacteroides_distasonis	1.98450338813			-
Bacteroides_cellulosilyticus	3.69432113091			-
Eubacterium_biforme	3.89688184996			-
Parabacteroides_unclassified	2.92600261594			-
Streptococcus_parasanguinis	2.08352340318			-
Human_adenovirus_D	2.20729759128			-
Bacteroides_dorei	1.91056793649			-
Eubacterium_siraeum	1.69792121979			-
Coprococcus_comes	3.60541621006			-
Bacteroidales_bacterium_ph8	3.47389334013			-
Bacteroides_massiliensis	4.30735385533			-
Eubacterium_hallii	3.36648970508			-
Eggerthella_unclassified	2.63018498753			-
Faecalibacterium_prausnitzii	5.46751311777	金唯智	4.83199324524	0.0446097180249
Bacteroides_finegoldii	3.33738077924			-
Streptococcus_australis	0.0			-
Bifidobacterium_pseudocatenulatum	3.28338990716			-
Staphylococcus_aureus	0.0			-
Paraprevotella_clara	3.82519935565			-
Clostridium_bolteae	1.82778484495			-
Anaerotruncus_unclassified	1.64219964547			-
Slackia_piriformis	0.0			-
Clostridium_leptum	1.5553717944			-
Ruminococcus_lactaris	3.31801364122			-
Methanosphaera_stadtmanae	0.0			-
Dehalococcoides_mccartyi	3.69074995636	美格	3.46963388793	0.0128206320138
Parabacteroides_goldsteinii	2.16801298044			-
Roseburia_intestinalis	3.6181005545			-
Oscillibacter_unclassified	3.09023243566			-
Streptococcus_anginosus	0.0			-
Ruminococcus_sp_5_1_39BFAA	3.61931872104			-
Lactobacillus_mucosae	0.0			-
Methanobrevibacter_unclassified	1.36111788672			-
Coprococcus_catus	3.12130516107			-
Veillonella_parvula	2.54525991137			-
Lachnospiraceae_bacterium_5_1_63FAA	2.95810336416			-
Roseburia_unclassified	3.15685916547			-
Sutterella_parvirubra	3.815555017			-
Bilophila_unclassified	3.71499182324			-
Lachnospiraceae_bacterium_3_1_46FAA	2.48710107674			-
Desulfovibrio_desulfuricans	2.0301169973			-
Klebsiella_pneumoniae	2.77988882242			-
Prevotella_stercorea	5.080820063			-
Ruminococcus_obeum	3.58590068783			-
Alistipes_onderdonkii	2.71431401347	美格	3.51028610475	0.0426801838139
Bacteroides_faecis	2.29700799623			-
Anaerostipes_hadrus	2.48985340896			-
Ruminococcus_bromii	3.83586333886			-
Eubacterium_eligens	4.40668895472			-
Bacteroides_xylanisolvens	3.39193607731			-
Lactobacillus_salivarius	1.8938956008			-
Bacteroides_vulgatus	4.40272580234			-
Streptococcus_salivarius	2.42842066564			-
Streptococcus_mitis_oralis_pneumoniae	1.32474984312			-
Salmonella_enterica	0.0			-
Alistipes_senegalensis	2.46345945098			-
Bacteroides_thetaiotaomicron	3.63127357253			-
