Coprococcus_sp_ART55_1	3.53908789916			-
Gordonibacter_pamelaeae	2.528987194			-
Lachnospiraceae_bacterium_2_1_58FAA	3.2000416616			-
Megamonas_rupellensis	3.48395013023			-
Dorea_longicatena	3.96119901426	诺禾	3.55679692319	0.0201367515503
Listeria_monocytogenes	0.0			-
Alistipes_sp_AP11	2.9946667529			-
Bacteroides_sp_3_1_19	3.66359725477			-
Bacteroides_ovatus	3.52168721151			-
Enterococcus_faecalis	0.0			-
Bacteroides_sp_4_3_47FAA	3.19828250681			-
Adlercreutzia_equolifaciens	3.72016029494			-
Ruminococcus_torques	3.75937912708			-
Bifidobacterium_longum	3.38280679653			-
Paraprevotella_xylaniphila	2.58607990146			-
Alistipes_putredinis	4.40947720349			-
Collinsella_aerofaciens	4.29829798318	诺禾	3.89113247616	0.0201367515503
Bacteroides_salyersiae	2.71188305058			-
Porcine_circovirus_1	1.23350672211			-
Bifidobacterium_adolescentis	4.96759961441			-
Megasphaera_unclassified	2.80709417464			-
Bacteroides_stercoris	4.43754609886			-
Barnesiella_intestinihominis	3.10281014967			-
Alistipes_shahii	3.70027814136			-
Veillonella_unclassified	2.53751174982			-
Megamonas_hypermegale	4.37786728217			-
Bacteroides_uniformis	4.43017345191			-
Subdoligranulum_unclassified	4.07724002306			-
Subdoligranulum_sp_4_3_54A2FAA	2.90095780691			-
Eubacterium_ventriosum	3.47896259118			-
Oxalobacter_formigenes	2.85197402095			-
Lachnospiraceae_bacterium_1_1_57FAA	4.59452469893			-
Staphylococcus_phage_phiETA2	1.77654574097			-
Ruminococcus_callidus	3.96767114256			-
Alistipes_indistinctus	2.51593929315			-
Bacteroides_coprocola	3.39224815826			-
Bacteroides_caccae	4.42033981858			-
Escherichia_unclassified	2.41892672985			-
Haemophilus_parainfluenzae	3.06359237033			-
Lactobacillus_fermentum	2.373765707	美格	3.48567822411	0.0431144467831
Pseudomonas_aeruginosa	0.0			-
Paraprevotella_unclassified	4.11116808844			-
Odoribacter_splanchnicus	3.5253610332			-
Eubacterium_rectale	5.04987845845			-
Actinomyces_odontolyticus	1.57784246578			-
Bacillus_subtilis	0.0			-
Peptostreptococcaceae_noname_unclassified	3.2147641331			-
Porcine_stool_associated_circular_virus_3	2.89254279223			-
Bacteroides_plebeius	3.31671975075			-
Alistipes_finegoldii	2.9747136283			-
Parasutterella_excrementihominis	3.21894370611			-
Porcine_associated_stool_circular_virus	3.11150094286			-
Burkholderiales_bacterium_1_1_47	2.75254816377			-
Roseburia_inulinivorans	4.26264191756			-
Megamonas_unclassified	4.87657874639			-
Bacteroides_coprophilus	3.45885270418			-
Eubacterium_ramulus	3.4153946395	诺禾	3.12893491572	0.0201367515503
Holdemania_unclassified	2.10228148416			-
Saccharomyces_cerevisiae	0.0			-
Salmonella_unclassified	0.0			-
Porcine_bocavirus_3	2.23190290645			-
Prevotella_copri	5.18682687846			-
Bifidobacterium_bifidum	3.23324044132			-
Clostridium_asparagiforme	1.29977452244			-
Phascolarctobacterium_succinatutens	4.42075150336			-
Methanobrevibacter_smithii	2.62087352348			-
Escherichia_coli	2.79492765039			-
Bilophila_wadsworthia	1.99220273116			-
Dorea_formicigenerans	3.67684856138	诺禾	3.32869913395	0.0201367515503
Holdemania_filiformis	2.30843805655			-
Bacteroides_nordii	1.55990224078			-
Megamonas_funiformis	4.08167617697			-
Roseburia_hominis	3.77991907078			-
Parabacteroides_merdae	4.09581576711	美格	3.62689251462	0.0388671038124
Parabacteroides_distasonis	1.98450338776			-
Bacteroides_cellulosilyticus	3.69432113419			-
Eubacterium_biforme	4.49616362949			-
Parabacteroides_unclassified	2.92600261377			-
Streptococcus_parasanguinis	2.56885955512			-
Human_adenovirus_D	2.20729759024			-
Bacteroides_dorei	1.91056793631			-
Eubacterium_siraeum	1.24614760901			-
Coprococcus_comes	3.80164925612			-
Bacteroidales_bacterium_ph8	3.47389333906			-
Bacteroides_massiliensis	4.30735387584			-
Eubacterium_hallii	4.35554898312	诺禾	3.98249721839	0.0201367515503
Eggerthella_unclassified	2.79420449136			-
Faecalibacterium_prausnitzii	5.15156363646			-
Bacteroides_intestinalis	2.39715653259			-
Streptococcus_australis	2.06728553271	诺禾	3.26567143343	0.0338948535247
Bifidobacterium_pseudocatenulatum	4.02722643865			-
Staphylococcus_aureus	0.0			-
Paraprevotella_clara	3.82519935459			-
Clostridium_bolteae	1.82778484483			-
Anaerotruncus_unclassified	1.64219964386			-
Slackia_piriformis	2.41210759545			-
Clostridium_leptum	1.75570161236			-
Ruminococcus_lactaris	3.77644055513			-
Methanosphaera_stadtmanae	2.28986531596			-
Dehalococcoides_mccartyi	3.69074995627	美格	3.43452610138	0.0431144467831
Parabacteroides_goldsteinii	2.16801297931			-
Roseburia_intestinalis	3.78390780372			-
Oscillibacter_unclassified	3.09023243578			-
Streptococcus_anginosus	1.56972456112			-
Ruminococcus_sp_5_1_39BFAA	4.55970522149	诺禾	4.18014908436	0.0201367515503
Lactobacillus_mucosae	1.79270095689			-
Bacteroides_finegoldii	3.33738077906			-
Coprococcus_catus	3.60706312888	诺禾	3.24292955413	0.0201367515503
Veillonella_parvula	2.54525991119			-
Lachnospiraceae_bacterium_5_1_63FAA	3.46112422515			-
Roseburia_unclassified	3.47886924369			-
Sutterella_parvirubra	3.81555501598			-
Bilophila_unclassified	3.71499182311			-
Lachnospiraceae_bacterium_3_1_46FAA	2.48710107662			-
Desulfovibrio_desulfuricans	2.03011699675			-
Klebsiella_pneumoniae	2.77988882115			-
Prevotella_stercorea	5.08082006199			-
Ruminococcus_obeum	4.33680283304	诺禾	3.96339752442	0.0201367515503
Alistipes_onderdonkii	2.71431401323	美格	3.04612741188	0.0380559209999
Bacteroides_faecis	2.29700799531			-
Anaerostipes_hadrus	3.09401900408			-
Ruminococcus_bromii	4.37508490328			-
Eubacterium_eligens	4.40668895453			-
Bacteroides_xylanisolvens	3.39193607705			-
Lactobacillus_salivarius	2.73869694191			-
Bacteroides_vulgatus	4.40272580147			-
Streptococcus_salivarius	3.08138712399			-
Salmonella_enterica	0.0			-
Alistipes_senegalensis	2.46345945091			-
Bacteroides_thetaiotaomicron	3.63127357228			-
