"0","new_meta_metagenomics %<>% filter(样本名称 != 'Community')"
"0","## 更换rownames为样品名称，不再使用seqid"
"0","otu_mgs <- mgs_profile_species %>% t() %>% as.data.frame() %>% rownames_to_column('seq_id')"
"0","abs_otu_mgs <- otu_mgs %>% column_to_rownames(""seq_id"")"
"0","abs_otu_mgs <- reads_stat[rownames(abs_otu_mgs),]$RemoveHost * abs_otu_mgs"
"0","rn <- rownames(abs_otu_mgs)"
"0","abs_otu_mgs %<>% lapply(., function(x) as.integer(x)) %>% as.data.frame()"
"0","rownames(abs_otu_mgs) <- rn"
"0","abs_otu_mgs %<>% rownames_to_column('seq_id')"
"0","otu_mgs <- merge(new_meta_metagenomics,otu_mgs,by=""seq_id"") %>% dplyr::select(!c(seq_id,样本名称,Group)) %>% column_to_rownames('Sample')"
"0","abs_otu_mgs<- merge(new_meta_metagenomics,abs_otu_mgs,by=""seq_id"") %>% dplyr::select(!c(seq_id,样本名称,Group)) %>% column_to_rownames('Sample')"
"0","plot_stacked_bar(otu_table = otu_mgs, metadata = new_meta_metagenomics %>% column_to_rownames('Sample'), order=c(""LYb-17-1_美格"" ,""LYb-17-2_美格"", ""LYb-17-1_诺禾"", ""PZQ-6-1_美格"",""PZQ-6-2_美格"",""PZQ-6-1_诺禾"" ,""Reference-040601_美格"" , ""Reference-040602_美格"",  ""Reference-040601_诺禾"" ))"
